{
  "owner": "fare",
  "repo": "gerbil-ethereum",
  "branch": "master",
  "private": false,
  "rev": "cb56063e3c90697223c5693b4663c680c0979919",
  "sha256": "05wrd1cwn13mkf36nxy171fr94vzm7d8by698z124jippi7c8q4c"
}
